<svg id="Group_22213" data-name="Group 22213" xmlns="http://www.w3.org/2000/svg" xmlns:xlink="http://www.w3.org/1999/xlink" width="16.906" height="22.848" viewBox="0 0 16.906 22.848">
  <defs>
    <clipPath id="clip-path">
      <rect id="Rectangle_4364" data-name="Rectangle 4364" width="16.906" height="22.848" fill="#290088"/>
    </clipPath>
  </defs>
  <g id="Group_22164" data-name="Group 22164" transform="translate(0 0)" clip-path="url(#clip-path)">
    <path id="Path_101478" data-name="Path 101478" d="M8.453,22.848a1.822,1.822,0,0,1-1.474-.755C4.373,18.479,0,11.9,0,8.453a8.453,8.453,0,0,1,16.906,0c0,3.451-4.373,10.026-6.98,13.64a1.819,1.819,0,0,1-1.473.755m0-21.263A6.876,6.876,0,0,0,1.585,8.453c0,2.163,2.5,6.915,6.679,12.713.124.17.254.17.376,0,4.184-5.8,6.68-10.55,6.68-12.713A6.876,6.876,0,0,0,8.453,1.585m0,11.508A4.348,4.348,0,1,1,12.8,8.745a4.353,4.353,0,0,1-4.347,4.348m0-7.111a2.763,2.763,0,1,0,2.762,2.763A2.765,2.765,0,0,0,8.453,5.983" transform="translate(0 0)" fill="#290088"/>
  </g>
</svg>
